[gd_scene load_steps=4 format=2]

[ext_resource path="res://Map/Misc/MouseCameraMovement.gd" type="Script" id=1]
[ext_resource path="res://Map/GameplayMapGenerator/GameplayMapGenerator.tscn" type="PackedScene" id=2]

[sub_resource type="RectangleShape2D" id=1]
extents = Vector2( 3153, 2523 )

[node name="GamePlayMapGenerator" instance=ExtResource( 2 )]

[node name="KinematicBody2D" type="KinematicBody2D" parent="." index="1"]
collision_layer = 8388608
collision_mask = 0
script = ExtResource( 1 )

[node name="CollisionShape2D" type="CollisionShape2D" parent="KinematicBody2D" index="0"]
shape = SubResource( 1 )
disabled = true

[node name="Camera2D" type="Camera2D" parent="KinematicBody2D" index="1"]
current = true
zoom = Vector2( 10, 10 )
drag_margin_h_enabled = true
drag_margin_v_enabled = true
