[gd_scene load_steps=2 format=2]

[ext_resource path="res://Obstacle/Obstacle.tscn" type="PackedScene" id=1]

[node name="EvilTree" instance=ExtResource( 1 )]
z_index = 300
_stunnedSnakeSeconds = 2.0

[node name="Sprite" parent="." index="0"]
offset = Vector2( 0, -64 )
vframes = 1
frame = 3
region_rect = Rect2( 128, 256, 0, 0 )
