[gd_resource type="DynamicFont" load_steps=2 format=2]

[ext_resource path="res://Commons/HARLOWSI.TTF" type="DynamicFontData" id=1]

[resource]
size = 35
outline_size = 1
outline_color = Color( 0.87451, 0.517647, 0.0588235, 1 )
font_data = ExtResource( 1 )
