[gd_scene load_steps=5 format=2]

[ext_resource path="res://Map/Asset/sprite_mapa_1.jpg" type="Texture" id=1]
[ext_resource path="res://Map/MapCell/MapCell.gd" type="Script" id=2]
[ext_resource path="res://Map/Asset/sprite_mapa_2.png" type="Texture" id=3]

[sub_resource type="RectangleShape2D" id=1]
extents = Vector2( 30, 30 )

[node name="MapCell" type="Node2D" groups=["MapCells"]]
script = ExtResource( 2 )

[node name="SpriteHappy" type="Sprite" parent="."]
texture = ExtResource( 1 )
hframes = 10
vframes = 2
frame = 6
region_rect = Rect2( 128, 128, 0, 0 )

[node name="SpriteEvil" type="Sprite" parent="." groups=["MapCells"]]
visible = false
texture = ExtResource( 3 )
hframes = 10
vframes = 2
frame = 6
region_rect = Rect2( 128, 128, 0, 0 )

[node name="Area2D" type="Area2D" parent="."]

[node name="Collision" type="CollisionShape2D" parent="Area2D"]
shape = SubResource( 1 )
disabled = true
