[gd_scene load_steps=4 format=2]

[ext_resource path="res://Snake/Asset/SnakeSprites.tres" type="SpriteFrames" id=1]
[ext_resource path="res://Snake/Head/Head.gd" type="Script" id=2]

[sub_resource type="CircleShape2D" id=1]
radius = 30.0

[node name="Head" type="Node2D"]
script = ExtResource( 2 )

[node name="AnimatedSprite" type="AnimatedSprite" parent="."]
frames = ExtResource( 1 )
animation = "head_right"

[node name="Area2D" type="Area2D" parent="."]

[node name="CollisionShape2D" type="CollisionShape2D" parent="Area2D"]
modulate = Color( 0.741176, 0, 1, 1 )
shape = SubResource( 1 )

[connection signal="area_entered" from="Area2D" to="." method="_on_Area2D_area_entered"]
